\relax 
\providecommand\hyper@newdestlabel[2]{}
\providecommand\HyperFirstAtBeginDocument{\AtBeginDocument}
\HyperFirstAtBeginDocument{\ifx\hyper@anchor\@undefined
\global\let\oldcontentsline\contentsline
\gdef\contentsline#1#2#3#4{\oldcontentsline{#1}{#2}{#3}}
\global\let\oldnewlabel\newlabel
\gdef\newlabel#1#2{\newlabelxx{#1}#2}
\gdef\newlabelxx#1#2#3#4#5#6{\oldnewlabel{#1}{{#2}{#3}}}
\AtEndDocument{\ifx\hyper@anchor\@undefined
\let\contentsline\oldcontentsline
\let\newlabel\oldnewlabel
\fi}
\fi}
\global\let\hyper@last\relax 
\gdef\HyperFirstAtBeginDocument#1{#1}
\providecommand\HyField@AuxAddToFields[1]{}
\providecommand\HyField@AuxAddToCoFields[2]{}
\@writefile{toc}{\contentsline {chapter}{\numberline {1}Contest}{1}{chapter.1}}
\@writefile{lof}{\addvspace {10\p@ }}
\@writefile{lot}{\addvspace {10\p@ }}
\ttl@writefile{ptc}{\ttl@starttoc{chapters@1}}
\@writefile{ptc}{\contentsline {section}{\texttt  {template.cpp}\hspace  {0.2em}}{1}{chapter.1}}
\@writefile{lol}{\contentsline {lstlisting}{\numberline {1.1}template.cpp}{1}{lstlisting.1.1}}
\@writefile{ptc}{\contentsline {section}{\texttt  {.bashrc}\hspace  {0.2em}}{1}{lstnumber.1.1.14}}
\@writefile{lol}{\contentsline {lstlisting}{\numberline {1.2}.bashrc}{1}{lstlisting.1.2}}
\@writefile{ptc}{\contentsline {section}{\texttt  {.vimrc}\hspace  {0.2em}}{1}{lstnumber.1.2.3}}
\@writefile{lol}{\contentsline {lstlisting}{\numberline {1.3}.vimrc}{1}{lstlisting.1.3}}
\@writefile{ptc}{\contentsline {section}{\texttt  {hash.sh}\hspace  {0.2em}}{1}{lstnumber.1.3.6}}
\@writefile{lol}{\contentsline {lstlisting}{\numberline {1.4}hash.sh}{1}{lstlisting.1.4}}
\@writefile{ptc}{\contentsline {section}{\texttt  {troubleshoot.txt}\hspace  {0.2em}}{1}{lstnumber.1.4.3}}
\@writefile{lol}{\contentsline {lstlisting}{\numberline {1.5}troubleshoot.txt}{1}{lstlisting.1.5}}
\@writefile{toc}{\contentsline {chapter}{\numberline {2}Mathematics}{1}{chapter.2}}
\@writefile{lof}{\addvspace {10\p@ }}
\@writefile{lot}{\addvspace {10\p@ }}
\ttl@writefile{ptc}{\ttl@stoptoc{chapters@1}}
\ttl@writefile{ptc}{\ttl@starttoc{chapters@2}}
\@writefile{toc}{\contentsline {section}{\numberline {2.1}Equations}{1}{section.2.1}}
\@writefile{toc}{\contentsline {section}{\numberline {2.2}Recurrences}{1}{section.2.2}}
\@writefile{toc}{\contentsline {section}{\numberline {2.3}Trigonometry}{1}{section.2.3}}
\@writefile{toc}{\contentsline {section}{\numberline {2.4}Geometry}{2}{section.2.4}}
\@writefile{toc}{\contentsline {subsection}{\numberline {2.4.1}Triangles}{2}{subsection.2.4.1}}
\@writefile{toc}{\contentsline {subsection}{\numberline {2.4.2}Quadrilaterals}{2}{subsection.2.4.2}}
\@writefile{toc}{\contentsline {subsection}{\numberline {2.4.3}Spherical coordinates}{2}{subsection.2.4.3}}
\@writefile{toc}{\contentsline {section}{\numberline {2.5}Probability theory}{2}{section.2.5}}
\@writefile{toc}{\contentsline {subsection}{\numberline {2.5.1}Discrete distributions}{2}{subsection.2.5.1}}
\@writefile{toc}{\contentsline {subsubsection}{Binomial distribution}{2}{section*.1}}
\@writefile{toc}{\contentsline {subsubsection}{First success distribution}{2}{section*.2}}
\@writefile{toc}{\contentsline {subsubsection}{Poisson distribution}{2}{section*.3}}
\@writefile{toc}{\contentsline {subsection}{\numberline {2.5.2}Continuous distributions}{2}{subsection.2.5.2}}
\@writefile{toc}{\contentsline {subsubsection}{Uniform distribution}{2}{section*.4}}
\@writefile{toc}{\contentsline {subsubsection}{Exponential distribution}{2}{section*.5}}
\@writefile{toc}{\contentsline {subsubsection}{Normal distribution}{2}{section*.6}}
\@writefile{toc}{\contentsline {section}{\numberline {2.6}Various}{2}{section.2.6}}
\@writefile{toc}{\contentsline {subsection}{\numberline {2.6.1}Pick's theorem}{2}{subsection.2.6.1}}
\@writefile{toc}{\contentsline {subsection}{\numberline {2.6.2}Euler's formula}{2}{subsection.2.6.2}}
\@writefile{toc}{\contentsline {chapter}{\numberline {3}Data structures}{2}{chapter.3}}
\@writefile{lof}{\addvspace {10\p@ }}
\@writefile{lot}{\addvspace {10\p@ }}
\ttl@writefile{ptc}{\ttl@stoptoc{chapters@2}}
\ttl@writefile{ptc}{\ttl@starttoc{chapters@3}}
\@writefile{ptc}{\contentsline {section}{\texttt  {OrderStatisticTree.h}\hspace  {0.2em}}{3}{chapter.3}}
\@writefile{lol}{\contentsline {lstlisting}{\numberline {3.1}OrderStatisticTree.h}{3}{lstlisting.3.1}}
\@writefile{ptc}{\contentsline {section}{\texttt  {HashMap.h}\hspace  {0.2em}}{3}{lstnumber.3.1.16}}
\@writefile{lol}{\contentsline {lstlisting}{\numberline {3.2}HashMap.h}{3}{lstlisting.3.2}}
\@writefile{ptc}{\contentsline {section}{\texttt  {SegmentTree.h}\hspace  {0.2em}}{3}{lstnumber.3.2.7}}
\@writefile{lol}{\contentsline {lstlisting}{\numberline {3.3}SegmentTree.h}{3}{lstlisting.3.3}}
\@writefile{ptc}{\contentsline {section}{\texttt  {LazySegmentTree.h}\hspace  {0.2em}}{3}{lstnumber.3.3.19}}
\@writefile{lol}{\contentsline {lstlisting}{\numberline {3.4}LazySegmentTree.h}{3}{lstlisting.3.4}}
\@writefile{ptc}{\contentsline {section}{\texttt  {UnionFindRollback.h}\hspace  {0.2em}}{3}{lstnumber.3.4.50}}
\@writefile{lol}{\contentsline {lstlisting}{\numberline {3.5}UnionFindRollback.h}{3}{lstlisting.3.5}}
\@writefile{ptc}{\contentsline {section}{\texttt  {SubMatrix.h}\hspace  {0.2em}}{3}{lstnumber.3.5.21}}
\@writefile{lol}{\contentsline {lstlisting}{\numberline {3.6}SubMatrix.h}{3}{lstlisting.3.6}}
\@writefile{ptc}{\contentsline {section}{\texttt  {Matrix.h}\hspace  {0.2em}}{3}{lstnumber.3.6.13}}
\@writefile{lol}{\contentsline {lstlisting}{\numberline {3.7}Matrix.h}{3}{lstlisting.3.7}}
\@writefile{ptc}{\contentsline {section}{\texttt  {LineContainer.h}\hspace  {0.2em}}{3}{lstnumber.3.7.26}}
\@writefile{lol}{\contentsline {lstlisting}{\numberline {3.8}LineContainer.h}{3}{lstlisting.3.8}}
\@writefile{ptc}{\contentsline {section}{\texttt  {Treap.h}\hspace  {0.2em}}{4}{lstnumber.3.8.30}}
\@writefile{lol}{\contentsline {lstlisting}{\numberline {3.9}Treap.h}{4}{lstlisting.3.9}}
\@writefile{ptc}{\contentsline {section}{\texttt  {FenwickTree.h}\hspace  {0.2em}}{4}{lstnumber.3.9.55}}
\@writefile{lol}{\contentsline {lstlisting}{\numberline {3.10}FenwickTree.h}{4}{lstlisting.3.10}}
\@writefile{ptc}{\contentsline {section}{\texttt  {FenwickTree2d.h}\hspace  {0.2em}}{4}{lstnumber.3.10.22}}
\@writefile{lol}{\contentsline {lstlisting}{\numberline {3.11}FenwickTree2d.h}{4}{lstlisting.3.11}}
\@writefile{ptc}{\contentsline {section}{\texttt  {RMQ.h}\hspace  {0.2em}}{4}{lstnumber.3.11.22}}
\@writefile{lol}{\contentsline {lstlisting}{\numberline {3.12}RMQ.h}{4}{lstlisting.3.12}}
\@writefile{toc}{\contentsline {chapter}{\numberline {4}Numerical}{4}{chapter.4}}
\@writefile{lof}{\addvspace {10\p@ }}
\@writefile{lot}{\addvspace {10\p@ }}
\ttl@writefile{ptc}{\ttl@stoptoc{chapters@3}}
\ttl@writefile{ptc}{\ttl@starttoc{chapters@4}}
\@writefile{toc}{\contentsline {section}{\numberline {4.1}Polynomials and recurrences}{4}{section.4.1}}
\@writefile{ptc}{\contentsline {subsection}{\texttt  {Polynomial.h}\hspace  {0.2em}}{4}{section.4.1}}
\@writefile{lol}{\contentsline {lstlisting}{\numberline {4.1}Polynomial.h}{4}{lstlisting.4.1}}
\@writefile{ptc}{\contentsline {subsection}{\texttt  {PolyRoots.h}\hspace  {0.2em}}{4}{lstnumber.4.1.17}}
\@writefile{lol}{\contentsline {lstlisting}{\numberline {4.2}PolyRoots.h}{4}{lstlisting.4.2}}
\@writefile{ptc}{\contentsline {subsection}{\texttt  {PolyInterpolate.h}\hspace  {0.2em}}{5}{lstnumber.4.2.23}}
\@writefile{lol}{\contentsline {lstlisting}{\numberline {4.3}PolyInterpolate.h}{5}{lstlisting.4.3}}
\@writefile{ptc}{\contentsline {subsection}{\texttt  {BerlekampMassey.h}\hspace  {0.2em}}{5}{lstnumber.4.3.13}}
\@writefile{lol}{\contentsline {lstlisting}{\numberline {4.4}BerlekampMassey.h}{5}{lstlisting.4.4}}
\@writefile{ptc}{\contentsline {subsection}{\texttt  {LinearRecurrence.h}\hspace  {0.2em}}{5}{lstnumber.4.4.20}}
\@writefile{lol}{\contentsline {lstlisting}{\numberline {4.5}LinearRecurrence.h}{5}{lstlisting.4.5}}
\@writefile{toc}{\contentsline {section}{\numberline {4.2}Optimization}{5}{section.4.2}}
\@writefile{ptc}{\contentsline {subsection}{\texttt  {GoldenSectionSearch.h}\hspace  {0.2em}}{5}{section.4.2}}
\@writefile{lol}{\contentsline {lstlisting}{\numberline {4.6}GoldenSectionSearch.h}{5}{lstlisting.4.6}}
\@writefile{ptc}{\contentsline {subsection}{\texttt  {HillClimbing.h}\hspace  {0.2em}}{5}{lstnumber.4.6.14}}
\@writefile{lol}{\contentsline {lstlisting}{\numberline {4.7}HillClimbing.h}{5}{lstlisting.4.7}}
\@writefile{ptc}{\contentsline {subsection}{\texttt  {Integrate.h}\hspace  {0.2em}}{5}{lstnumber.4.7.14}}
\@writefile{lol}{\contentsline {lstlisting}{\numberline {4.8}Integrate.h}{5}{lstlisting.4.8}}
\@writefile{ptc}{\contentsline {subsection}{\texttt  {IntegrateAdaptive.h}\hspace  {0.2em}}{5}{lstnumber.4.8.7}}
\@writefile{lol}{\contentsline {lstlisting}{\numberline {4.9}IntegrateAdaptive.h}{5}{lstlisting.4.9}}
\@writefile{ptc}{\contentsline {subsection}{\texttt  {Simplex.h}\hspace  {0.2em}}{5}{lstnumber.4.9.15}}
\@writefile{lol}{\contentsline {lstlisting}{\numberline {4.10}Simplex.h}{5}{lstlisting.4.10}}
\@writefile{toc}{\contentsline {section}{\numberline {4.3}Matrices}{6}{section.4.3}}
\@writefile{ptc}{\contentsline {subsection}{\texttt  {Determinant.h}\hspace  {0.2em}}{6}{section.4.3}}
\@writefile{lol}{\contentsline {lstlisting}{\numberline {4.11}Determinant.h}{6}{lstlisting.4.11}}
\@writefile{ptc}{\contentsline {subsection}{\texttt  {IntDeterminant.h}\hspace  {0.2em}}{6}{lstnumber.4.11.15}}
\@writefile{lol}{\contentsline {lstlisting}{\numberline {4.12}IntDeterminant.h}{6}{lstlisting.4.12}}
\@writefile{ptc}{\contentsline {subsection}{\texttt  {SolveLinear.h}\hspace  {0.2em}}{6}{lstnumber.4.12.18}}
\@writefile{lol}{\contentsline {lstlisting}{\numberline {4.13}SolveLinear.h}{6}{lstlisting.4.13}}
\@writefile{ptc}{\contentsline {subsection}{\texttt  {SolveLinear2.h}\hspace  {0.2em}}{6}{lstnumber.4.13.38}}
\@writefile{lol}{\contentsline {lstlisting}{\numberline {4.14}SolveLinear2.h}{6}{lstlisting.4.14}}
\@writefile{ptc}{\contentsline {subsection}{\texttt  {SolveLinearBinary.h}\hspace  {0.2em}}{6}{lstnumber.4.14.7}}
\@writefile{lol}{\contentsline {lstlisting}{\numberline {4.15}SolveLinearBinary.h}{6}{lstlisting.4.15}}
\@writefile{ptc}{\contentsline {subsection}{\texttt  {MatrixInverse.h}\hspace  {0.2em}}{7}{lstnumber.4.15.34}}
\@writefile{lol}{\contentsline {lstlisting}{\numberline {4.16}MatrixInverse.h}{7}{lstlisting.4.16}}
\@writefile{ptc}{\contentsline {subsection}{\texttt  {Tridiagonal.h}\hspace  {0.2em}}{7}{lstnumber.4.16.35}}
\@writefile{lol}{\contentsline {lstlisting}{\numberline {4.17}Tridiagonal.h}{7}{lstlisting.4.17}}
\@writefile{toc}{\contentsline {section}{\numberline {4.4}Fourier transforms}{7}{section.4.4}}
\@writefile{ptc}{\contentsline {subsection}{\texttt  {FastFourierTransform.h}\hspace  {0.2em}}{7}{section.4.4}}
\@writefile{lol}{\contentsline {lstlisting}{\numberline {4.18}FastFourierTransform.h}{7}{lstlisting.4.18}}
\@writefile{ptc}{\contentsline {subsection}{\texttt  {FastFourierTransformMod.h}\hspace  {0.2em}}{7}{lstnumber.4.18.35}}
\@writefile{lol}{\contentsline {lstlisting}{\numberline {4.19}FastFourierTransformMod.h}{7}{lstlisting.4.19}}
\@writefile{ptc}{\contentsline {subsection}{\texttt  {NumberTheoreticTransform.h}\hspace  {0.2em}}{7}{lstnumber.4.19.22}}
\@writefile{lol}{\contentsline {lstlisting}{\numberline {4.20}NumberTheoreticTransform.h}{7}{lstlisting.4.20}}
\@writefile{ptc}{\contentsline {subsection}{\texttt  {FastSubsetTransform.h}\hspace  {0.2em}}{8}{lstnumber.4.20.33}}
\@writefile{lol}{\contentsline {lstlisting}{\numberline {4.21}FastSubsetTransform.h}{8}{lstlisting.4.21}}
\@writefile{toc}{\contentsline {chapter}{\numberline {5}Number theory}{8}{chapter.5}}
\@writefile{lof}{\addvspace {10\p@ }}
\@writefile{lot}{\addvspace {10\p@ }}
\ttl@writefile{ptc}{\ttl@stoptoc{chapters@4}}
\ttl@writefile{ptc}{\ttl@starttoc{chapters@5}}
\@writefile{toc}{\contentsline {section}{\numberline {5.1}Modular arithmetic}{8}{section.5.1}}
\@writefile{ptc}{\contentsline {subsection}{\texttt  {ModularArithmetic.h}\hspace  {0.2em}}{8}{section.5.1}}
\@writefile{lol}{\contentsline {lstlisting}{\numberline {5.1}ModularArithmetic.h}{8}{lstlisting.5.1}}
\@writefile{ptc}{\contentsline {subsection}{\texttt  {ModInverse.h}\hspace  {0.2em}}{8}{lstnumber.5.1.18}}
\@writefile{lol}{\contentsline {lstlisting}{\numberline {5.2}ModInverse.h}{8}{lstlisting.5.2}}
\@writefile{ptc}{\contentsline {subsection}{\texttt  {ModPow.h}\hspace  {0.2em}}{8}{lstnumber.5.2.3}}
\@writefile{lol}{\contentsline {lstlisting}{\numberline {5.3}ModPow.h}{8}{lstlisting.5.3}}
\@writefile{ptc}{\contentsline {subsection}{\texttt  {ModLog.h}\hspace  {0.2em}}{8}{lstnumber.5.3.8}}
\@writefile{lol}{\contentsline {lstlisting}{\numberline {5.4}ModLog.h}{8}{lstlisting.5.4}}
\@writefile{ptc}{\contentsline {subsection}{\texttt  {ModSum.h}\hspace  {0.2em}}{8}{lstnumber.5.4.11}}
\@writefile{lol}{\contentsline {lstlisting}{\numberline {5.5}ModSum.h}{8}{lstlisting.5.5}}
\@writefile{ptc}{\contentsline {subsection}{\texttt  {ModMulLL.h}\hspace  {0.2em}}{8}{lstnumber.5.5.16}}
\@writefile{lol}{\contentsline {lstlisting}{\numberline {5.6}ModMulLL.h}{8}{lstlisting.5.6}}
\@writefile{ptc}{\contentsline {subsection}{\texttt  {ModSqrt.h}\hspace  {0.2em}}{8}{lstnumber.5.6.11}}
\@writefile{lol}{\contentsline {lstlisting}{\numberline {5.7}ModSqrt.h}{8}{lstlisting.5.7}}
\@writefile{toc}{\contentsline {section}{\numberline {5.2}Primality}{8}{section.5.2}}
\@writefile{ptc}{\contentsline {subsection}{\texttt  {FastEratosthenes.h}\hspace  {0.2em}}{8}{section.5.2}}
\@writefile{lol}{\contentsline {lstlisting}{\numberline {5.8}FastEratosthenes.h}{8}{lstlisting.5.8}}
\@writefile{ptc}{\contentsline {subsection}{\texttt  {MillerRabin.h}\hspace  {0.2em}}{8}{lstnumber.5.8.20}}
\@writefile{lol}{\contentsline {lstlisting}{\numberline {5.9}MillerRabin.h}{8}{lstlisting.5.9}}
\@writefile{ptc}{\contentsline {subsection}{\texttt  {Factor.h}\hspace  {0.2em}}{9}{lstnumber.5.9.12}}
\@writefile{lol}{\contentsline {lstlisting}{\numberline {5.10}Factor.h}{9}{lstlisting.5.10}}
\@writefile{toc}{\contentsline {section}{\numberline {5.3}Divisibility}{9}{section.5.3}}
\@writefile{ptc}{\contentsline {subsection}{\texttt  {euclid.h}\hspace  {0.2em}}{9}{section.5.3}}
\@writefile{lol}{\contentsline {lstlisting}{\numberline {5.11}euclid.h}{9}{lstlisting.5.11}}
\@writefile{ptc}{\contentsline {subsection}{\texttt  {CRT.h}\hspace  {0.2em}}{9}{lstnumber.5.11.5}}
\@writefile{lol}{\contentsline {lstlisting}{\numberline {5.12}CRT.h}{9}{lstlisting.5.12}}
\@writefile{toc}{\contentsline {subsection}{\numberline {5.3.1}B\IeC {\'e}zout's identity}{9}{subsection.5.3.1}}
\@writefile{ptc}{\contentsline {subsection}{\texttt  {phiFunction.h}\hspace  {0.2em}}{9}{subsection.5.3.1}}
\@writefile{lol}{\contentsline {lstlisting}{\numberline {5.13}phiFunction.h}{9}{lstlisting.5.13}}
\@writefile{toc}{\contentsline {section}{\numberline {5.4}Fractions}{9}{section.5.4}}
\@writefile{ptc}{\contentsline {subsection}{\texttt  {ContinuedFractions.h}\hspace  {0.2em}}{9}{section.5.4}}
\@writefile{lol}{\contentsline {lstlisting}{\numberline {5.14}ContinuedFractions.h}{9}{lstlisting.5.14}}
\@writefile{ptc}{\contentsline {subsection}{\texttt  {FracBinarySearch.h}\hspace  {0.2em}}{9}{lstnumber.5.14.21}}
\@writefile{lol}{\contentsline {lstlisting}{\numberline {5.15}FracBinarySearch.h}{9}{lstlisting.5.15}}
\@writefile{toc}{\contentsline {section}{\numberline {5.5}Pythagorean Triples}{9}{section.5.5}}
\@writefile{toc}{\contentsline {section}{\numberline {5.6}Primes}{9}{section.5.6}}
\@writefile{toc}{\contentsline {section}{\numberline {5.7}Estimates}{9}{section.5.7}}
\@writefile{toc}{\contentsline {section}{\numberline {5.8}Mobius Function}{10}{section.5.8}}
\@writefile{toc}{\contentsline {chapter}{\numberline {6}Combinatorial}{10}{chapter.6}}
\@writefile{lof}{\addvspace {10\p@ }}
\@writefile{lot}{\addvspace {10\p@ }}
\ttl@writefile{ptc}{\ttl@stoptoc{chapters@5}}
\ttl@writefile{ptc}{\ttl@starttoc{chapters@6}}
\@writefile{toc}{\contentsline {section}{\numberline {6.1}Permutations}{10}{section.6.1}}
\@writefile{toc}{\contentsline {subsection}{\numberline {6.1.1}Cycles}{10}{subsection.6.1.1}}
\@writefile{toc}{\contentsline {subsection}{\numberline {6.1.2}Derangements}{10}{subsection.6.1.2}}
\@writefile{toc}{\contentsline {subsection}{\numberline {6.1.3}Burnside's lemma}{10}{subsection.6.1.3}}
\@writefile{toc}{\contentsline {section}{\numberline {6.2}Partitions and subsets}{10}{section.6.2}}
\@writefile{toc}{\contentsline {subsection}{\numberline {6.2.1}Partition function}{10}{subsection.6.2.1}}
\@writefile{toc}{\contentsline {subsection}{\numberline {6.2.2}Lucas' Theorem}{10}{subsection.6.2.2}}
\@writefile{toc}{\contentsline {subsection}{\numberline {6.2.3}Binomials}{10}{subsection.6.2.3}}
\@writefile{ptc}{\contentsline {subsection}{\texttt  {multinomial.h}\hspace  {0.2em}}{10}{subsection.6.2.3}}
\@writefile{lol}{\contentsline {lstlisting}{\numberline {6.1}multinomial.h}{10}{lstlisting.6.1}}
\@writefile{toc}{\contentsline {section}{\numberline {6.3}General purpose numbers}{10}{section.6.3}}
\@writefile{toc}{\contentsline {subsection}{\numberline {6.3.1}Bernoulli numbers}{10}{subsection.6.3.1}}
\@writefile{toc}{\contentsline {subsection}{\numberline {6.3.2}Stirling numbers of the first kind}{10}{subsection.6.3.2}}
\@writefile{toc}{\contentsline {subsection}{\numberline {6.3.3}Eulerian numbers}{10}{subsection.6.3.3}}
\@writefile{toc}{\contentsline {subsection}{\numberline {6.3.4}Stirling numbers of the second kind}{10}{subsection.6.3.4}}
\@writefile{toc}{\contentsline {subsection}{\numberline {6.3.5}Bell numbers}{10}{subsection.6.3.5}}
\@writefile{toc}{\contentsline {subsection}{\numberline {6.3.6}Labeled unrooted trees}{10}{subsection.6.3.6}}
\@writefile{toc}{\contentsline {subsection}{\numberline {6.3.7}Catalan numbers}{11}{subsection.6.3.7}}
\@writefile{toc}{\contentsline {chapter}{\numberline {7}Graph}{11}{chapter.7}}
\@writefile{lof}{\addvspace {10\p@ }}
\@writefile{lot}{\addvspace {10\p@ }}
\ttl@writefile{ptc}{\ttl@stoptoc{chapters@6}}
\ttl@writefile{ptc}{\ttl@starttoc{chapters@7}}
\@writefile{toc}{\contentsline {section}{\numberline {7.1}Fundamentals}{11}{section.7.1}}
\@writefile{ptc}{\contentsline {subsection}{\texttt  {BellmanFord.h}\hspace  {0.2em}}{11}{section.7.1}}
\@writefile{lol}{\contentsline {lstlisting}{\numberline {7.1}BellmanFord.h}{11}{lstlisting.7.1}}
\@writefile{ptc}{\contentsline {subsection}{\texttt  {FloydWarshall.h}\hspace  {0.2em}}{11}{lstnumber.7.1.23}}
\@writefile{lol}{\contentsline {lstlisting}{\numberline {7.2}FloydWarshall.h}{11}{lstlisting.7.2}}
\@writefile{ptc}{\contentsline {subsection}{\texttt  {TopoSort.h}\hspace  {0.2em}}{11}{lstnumber.7.2.12}}
\@writefile{lol}{\contentsline {lstlisting}{\numberline {7.3}TopoSort.h}{11}{lstlisting.7.3}}
\@writefile{toc}{\contentsline {section}{\numberline {7.2}Network flow}{11}{section.7.2}}
\@writefile{ptc}{\contentsline {subsection}{\texttt  {PushRelabel.h}\hspace  {0.2em}}{11}{section.7.2}}
\@writefile{lol}{\contentsline {lstlisting}{\numberline {7.4}PushRelabel.h}{11}{lstlisting.7.4}}
\@writefile{ptc}{\contentsline {subsection}{\texttt  {MinCostMaxFlow.h}\hspace  {0.2em}}{11}{lstnumber.7.4.48}}
\@writefile{lol}{\contentsline {lstlisting}{\numberline {7.5}MinCostMaxFlow.h}{11}{lstlisting.7.5}}
\@writefile{ptc}{\contentsline {subsection}{\texttt  {EdmondsKarp.h}\hspace  {0.2em}}{12}{lstnumber.7.5.81}}
\@writefile{lol}{\contentsline {lstlisting}{\numberline {7.6}EdmondsKarp.h}{12}{lstlisting.7.6}}
\@writefile{ptc}{\contentsline {subsection}{\texttt  {MinCut.h}\hspace  {0.2em}}{12}{lstnumber.7.6.35}}
\@writefile{lol}{\contentsline {lstlisting}{\numberline {7.7}MinCut.h}{12}{lstlisting.7.7}}
\@writefile{ptc}{\contentsline {subsection}{\texttt  {GlobalMinCut.h}\hspace  {0.2em}}{12}{lstnumber.7.7.1}}
\@writefile{lol}{\contentsline {lstlisting}{\numberline {7.8}GlobalMinCut.h}{12}{lstlisting.7.8}}
\@writefile{ptc}{\contentsline {subsection}{\texttt  {GomoryHu.h}\hspace  {0.2em}}{12}{lstnumber.7.8.21}}
\@writefile{lol}{\contentsline {lstlisting}{\numberline {7.9}GomoryHu.h}{12}{lstlisting.7.9}}
\@writefile{toc}{\contentsline {section}{\numberline {7.3}Matching}{12}{section.7.3}}
\@writefile{ptc}{\contentsline {subsection}{\texttt  {hopcroftKarp.h}\hspace  {0.2em}}{12}{section.7.3}}
\@writefile{lol}{\contentsline {lstlisting}{\numberline {7.10}hopcroftKarp.h}{12}{lstlisting.7.10}}
\@writefile{ptc}{\contentsline {subsection}{\texttt  {DFSMatching.h}\hspace  {0.2em}}{12}{lstnumber.7.10.42}}
\@writefile{lol}{\contentsline {lstlisting}{\numberline {7.11}DFSMatching.h}{12}{lstlisting.7.11}}
\@writefile{ptc}{\contentsline {subsection}{\texttt  {MinimumVertexCover.h}\hspace  {0.2em}}{13}{lstnumber.7.11.22}}
\@writefile{lol}{\contentsline {lstlisting}{\numberline {7.12}MinimumVertexCover.h}{13}{lstlisting.7.12}}
\@writefile{ptc}{\contentsline {subsection}{\texttt  {WeightedMatching.h}\hspace  {0.2em}}{13}{lstnumber.7.12.20}}
\@writefile{lol}{\contentsline {lstlisting}{\numberline {7.13}WeightedMatching.h}{13}{lstlisting.7.13}}
\@writefile{ptc}{\contentsline {subsection}{\texttt  {GeneralMatching.h}\hspace  {0.2em}}{13}{lstnumber.7.13.31}}
\@writefile{lol}{\contentsline {lstlisting}{\numberline {7.14}GeneralMatching.h}{13}{lstlisting.7.14}}
\@writefile{toc}{\contentsline {section}{\numberline {7.4}DFS algorithms}{13}{section.7.4}}
\@writefile{ptc}{\contentsline {subsection}{\texttt  {SCC.h}\hspace  {0.2em}}{13}{section.7.4}}
\@writefile{lol}{\contentsline {lstlisting}{\numberline {7.15}SCC.h}{13}{lstlisting.7.15}}
\@writefile{ptc}{\contentsline {subsection}{\texttt  {BiconnectedComponents.h}\hspace  {0.2em}}{13}{lstnumber.7.15.24}}
\@writefile{lol}{\contentsline {lstlisting}{\numberline {7.16}BiconnectedComponents.h}{13}{lstlisting.7.16}}
\@writefile{ptc}{\contentsline {subsection}{\texttt  {2sat.h}\hspace  {0.2em}}{14}{lstnumber.7.16.33}}
\@writefile{lol}{\contentsline {lstlisting}{\numberline {7.17}2sat.h}{14}{lstlisting.7.17}}
\@writefile{ptc}{\contentsline {subsection}{\texttt  {EulerWalk.h}\hspace  {0.2em}}{14}{lstnumber.7.17.56}}
\@writefile{lol}{\contentsline {lstlisting}{\numberline {7.18}EulerWalk.h}{14}{lstlisting.7.18}}
\@writefile{toc}{\contentsline {section}{\numberline {7.5}Coloring}{14}{section.7.5}}
\@writefile{ptc}{\contentsline {subsection}{\texttt  {EdgeColoring.h}\hspace  {0.2em}}{14}{section.7.5}}
\@writefile{lol}{\contentsline {lstlisting}{\numberline {7.19}EdgeColoring.h}{14}{lstlisting.7.19}}
\@writefile{toc}{\contentsline {section}{\numberline {7.6}Heuristics}{14}{section.7.6}}
\@writefile{ptc}{\contentsline {subsection}{\texttt  {MaximalCliques.h}\hspace  {0.2em}}{14}{section.7.6}}
\@writefile{lol}{\contentsline {lstlisting}{\numberline {7.20}MaximalCliques.h}{14}{lstlisting.7.20}}
\@writefile{ptc}{\contentsline {subsection}{\texttt  {MaximumClique.h}\hspace  {0.2em}}{14}{lstnumber.7.20.12}}
\@writefile{lol}{\contentsline {lstlisting}{\numberline {7.21}MaximumClique.h}{14}{lstlisting.7.21}}
\@writefile{ptc}{\contentsline {subsection}{\texttt  {MaximumIndependentSet.h}\hspace  {0.2em}}{15}{lstnumber.7.21.49}}
\@writefile{lol}{\contentsline {lstlisting}{\numberline {7.22}MaximumIndependentSet.h}{15}{lstlisting.7.22}}
\@writefile{toc}{\contentsline {section}{\numberline {7.7}Trees}{15}{section.7.7}}
\@writefile{ptc}{\contentsline {subsection}{\texttt  {BinaryLifting.h}\hspace  {0.2em}}{15}{section.7.7}}
\@writefile{lol}{\contentsline {lstlisting}{\numberline {7.23}BinaryLifting.h}{15}{lstlisting.7.23}}
\@writefile{ptc}{\contentsline {subsection}{\texttt  {LCA.h}\hspace  {0.2em}}{15}{lstnumber.7.23.25}}
\@writefile{lol}{\contentsline {lstlisting}{\numberline {7.24}LCA.h}{15}{lstlisting.7.24}}
\@writefile{ptc}{\contentsline {subsection}{\texttt  {CompressTree.h}\hspace  {0.2em}}{15}{lstnumber.7.24.21}}
\@writefile{lol}{\contentsline {lstlisting}{\numberline {7.25}CompressTree.h}{15}{lstlisting.7.25}}
\@writefile{ptc}{\contentsline {subsection}{\texttt  {HLD.h}\hspace  {0.2em}}{15}{lstnumber.7.25.21}}
\@writefile{lol}{\contentsline {lstlisting}{\numberline {7.26}HLD.h}{15}{lstlisting.7.26}}
\@writefile{ptc}{\contentsline {subsection}{\texttt  {LinkCutTree.h}\hspace  {0.2em}}{15}{lstnumber.7.26.46}}
\@writefile{lol}{\contentsline {lstlisting}{\numberline {7.27}LinkCutTree.h}{15}{lstlisting.7.27}}
\@writefile{ptc}{\contentsline {subsection}{\texttt  {DirectedMST.h}\hspace  {0.2em}}{16}{lstnumber.7.27.90}}
\@writefile{lol}{\contentsline {lstlisting}{\numberline {7.28}DirectedMST.h}{16}{lstlisting.7.28}}
\@writefile{toc}{\contentsline {section}{\numberline {7.8}Math}{16}{section.7.8}}
\@writefile{toc}{\contentsline {subsection}{\numberline {7.8.1}Number of Spanning Trees}{16}{subsection.7.8.1}}
\@writefile{toc}{\contentsline {subsection}{\numberline {7.8.2}Erd\IeC {\H o}s\IeC {\textendash }Gallai theorem}{16}{subsection.7.8.2}}
\@writefile{toc}{\contentsline {chapter}{\numberline {8}Geometry}{16}{chapter.8}}
\@writefile{lof}{\addvspace {10\p@ }}
\@writefile{lot}{\addvspace {10\p@ }}
\ttl@writefile{ptc}{\ttl@stoptoc{chapters@7}}
\ttl@writefile{ptc}{\ttl@starttoc{chapters@8}}
\@writefile{toc}{\contentsline {section}{\numberline {8.1}Geometric primitives}{16}{section.8.1}}
\@writefile{ptc}{\contentsline {subsection}{\texttt  {Point.h}\hspace  {0.2em}}{16}{section.8.1}}
\@writefile{lol}{\contentsline {lstlisting}{\numberline {8.1}Point.h}{16}{lstlisting.8.1}}
\@writefile{ptc}{\contentsline {subsection}{\texttt  {lineDistance.h}\hspace  {0.2em}}{16}{lstnumber.8.1.28}}
\@writefile{lol}{\contentsline {lstlisting}{\numberline {8.2}lineDistance.h}{16}{lstlisting.8.2}}
\@writefile{ptc}{\contentsline {subsection}{\texttt  {SegmentDistance.h}\hspace  {0.2em}}{16}{lstnumber.8.2.4}}
\@writefile{lol}{\contentsline {lstlisting}{\numberline {8.3}SegmentDistance.h}{16}{lstlisting.8.3}}
\@writefile{ptc}{\contentsline {subsection}{\texttt  {SegmentIntersection.h}\hspace  {0.2em}}{17}{lstnumber.8.3.6}}
\@writefile{lol}{\contentsline {lstlisting}{\numberline {8.4}SegmentIntersection.h}{17}{lstlisting.8.4}}
\@writefile{ptc}{\contentsline {subsection}{\texttt  {lineIntersection.h}\hspace  {0.2em}}{17}{lstnumber.8.4.13}}
\@writefile{lol}{\contentsline {lstlisting}{\numberline {8.5}lineIntersection.h}{17}{lstlisting.8.5}}
\@writefile{ptc}{\contentsline {subsection}{\texttt  {sideOf.h}\hspace  {0.2em}}{17}{lstnumber.8.5.8}}
\@writefile{lol}{\contentsline {lstlisting}{\numberline {8.6}sideOf.h}{17}{lstlisting.8.6}}
\@writefile{ptc}{\contentsline {subsection}{\texttt  {OnSegment.h}\hspace  {0.2em}}{17}{lstnumber.8.6.9}}
\@writefile{lol}{\contentsline {lstlisting}{\numberline {8.7}OnSegment.h}{17}{lstlisting.8.7}}
\@writefile{ptc}{\contentsline {subsection}{\texttt  {linearTransformation.h}\hspace  {0.2em}}{17}{lstnumber.8.7.3}}
\@writefile{lol}{\contentsline {lstlisting}{\numberline {8.8}linearTransformation.h}{17}{lstlisting.8.8}}
\@writefile{ptc}{\contentsline {subsection}{\texttt  {Angle.h}\hspace  {0.2em}}{17}{lstnumber.8.8.6}}
\@writefile{lol}{\contentsline {lstlisting}{\numberline {8.9}Angle.h}{17}{lstlisting.8.9}}
\@writefile{toc}{\contentsline {section}{\numberline {8.2}Circles}{17}{section.8.2}}
\@writefile{ptc}{\contentsline {subsection}{\texttt  {CircleIntersection.h}\hspace  {0.2em}}{17}{section.8.2}}
\@writefile{lol}{\contentsline {lstlisting}{\numberline {8.10}CircleIntersection.h}{17}{lstlisting.8.10}}
\@writefile{ptc}{\contentsline {subsection}{\texttt  {CircleTangents.h}\hspace  {0.2em}}{17}{lstnumber.8.10.11}}
\@writefile{lol}{\contentsline {lstlisting}{\numberline {8.11}CircleTangents.h}{17}{lstlisting.8.11}}
\@writefile{ptc}{\contentsline {subsection}{\texttt  {CirclePolygonIntersection.h}\hspace  {0.2em}}{17}{lstnumber.8.11.13}}
\@writefile{lol}{\contentsline {lstlisting}{\numberline {8.12}CirclePolygonIntersection.h}{17}{lstlisting.8.12}}
\@writefile{ptc}{\contentsline {subsection}{\texttt  {circumcircle.h}\hspace  {0.2em}}{18}{lstnumber.8.12.19}}
\@writefile{lol}{\contentsline {lstlisting}{\numberline {8.13}circumcircle.h}{18}{lstlisting.8.13}}
\@writefile{ptc}{\contentsline {subsection}{\texttt  {MinimumEnclosingCircle.h}\hspace  {0.2em}}{18}{lstnumber.8.13.9}}
\@writefile{lol}{\contentsline {lstlisting}{\numberline {8.14}MinimumEnclosingCircle.h}{18}{lstlisting.8.14}}
\@writefile{toc}{\contentsline {section}{\numberline {8.3}Polygons}{18}{section.8.3}}
\@writefile{ptc}{\contentsline {subsection}{\texttt  {InsidePolygon.h}\hspace  {0.2em}}{18}{section.8.3}}
\@writefile{lol}{\contentsline {lstlisting}{\numberline {8.15}InsidePolygon.h}{18}{lstlisting.8.15}}
\@writefile{ptc}{\contentsline {subsection}{\texttt  {PolygonArea.h}\hspace  {0.2em}}{18}{lstnumber.8.15.11}}
\@writefile{lol}{\contentsline {lstlisting}{\numberline {8.16}PolygonArea.h}{18}{lstlisting.8.16}}
\@writefile{ptc}{\contentsline {subsection}{\texttt  {PolygonCenter.h}\hspace  {0.2em}}{18}{lstnumber.8.16.6}}
\@writefile{lol}{\contentsline {lstlisting}{\numberline {8.17}PolygonCenter.h}{18}{lstlisting.8.17}}
\@writefile{ptc}{\contentsline {subsection}{\texttt  {PolygonCut.h}\hspace  {0.2em}}{18}{lstnumber.8.17.9}}
\@writefile{lol}{\contentsline {lstlisting}{\numberline {8.18}PolygonCut.h}{18}{lstlisting.8.18}}
\@writefile{ptc}{\contentsline {subsection}{\texttt  {ConvexHull.h}\hspace  {0.2em}}{18}{lstnumber.8.18.13}}
\@writefile{lol}{\contentsline {lstlisting}{\numberline {8.19}ConvexHull.h}{18}{lstlisting.8.19}}
\@writefile{ptc}{\contentsline {subsection}{\texttt  {HullDiameter.h}\hspace  {0.2em}}{18}{lstnumber.8.19.13}}
\@writefile{lol}{\contentsline {lstlisting}{\numberline {8.20}HullDiameter.h}{18}{lstlisting.8.20}}
\@writefile{ptc}{\contentsline {subsection}{\texttt  {PointInsideHull.h}\hspace  {0.2em}}{18}{lstnumber.8.20.12}}
\@writefile{lol}{\contentsline {lstlisting}{\numberline {8.21}PointInsideHull.h}{18}{lstlisting.8.21}}
\@writefile{ptc}{\contentsline {subsection}{\texttt  {LineHullIntersection.h}\hspace  {0.2em}}{18}{lstnumber.8.21.14}}
\@writefile{lol}{\contentsline {lstlisting}{\numberline {8.22}LineHullIntersection.h}{18}{lstlisting.8.22}}
\@writefile{toc}{\contentsline {section}{\numberline {8.4}Misc. Point Set Problems}{19}{section.8.4}}
\@writefile{ptc}{\contentsline {subsection}{\texttt  {ClosestPair.h}\hspace  {0.2em}}{19}{section.8.4}}
\@writefile{lol}{\contentsline {lstlisting}{\numberline {8.23}ClosestPair.h}{19}{lstlisting.8.23}}
\@writefile{ptc}{\contentsline {subsection}{\texttt  {FastDelaunay.h}\hspace  {0.2em}}{19}{lstnumber.8.23.17}}
\@writefile{lol}{\contentsline {lstlisting}{\numberline {8.24}FastDelaunay.h}{19}{lstlisting.8.24}}
\@writefile{toc}{\contentsline {section}{\numberline {8.5}3D}{19}{section.8.5}}
\@writefile{ptc}{\contentsline {subsection}{\texttt  {PolyhedronVolume.h}\hspace  {0.2em}}{19}{section.8.5}}
\@writefile{lol}{\contentsline {lstlisting}{\numberline {8.25}PolyhedronVolume.h}{19}{lstlisting.8.25}}
\@writefile{ptc}{\contentsline {subsection}{\texttt  {Point3D.h}\hspace  {0.2em}}{19}{lstnumber.8.25.6}}
\@writefile{lol}{\contentsline {lstlisting}{\numberline {8.26}Point3D.h}{19}{lstlisting.8.26}}
\@writefile{ptc}{\contentsline {subsection}{\texttt  {3dHull.h}\hspace  {0.2em}}{19}{lstnumber.8.26.32}}
\@writefile{lol}{\contentsline {lstlisting}{\numberline {8.27}3dHull.h}{19}{lstlisting.8.27}}
\@writefile{ptc}{\contentsline {subsection}{\texttt  {sphericalDistance.h}\hspace  {0.2em}}{20}{lstnumber.8.27.49}}
\@writefile{lol}{\contentsline {lstlisting}{\numberline {8.28}sphericalDistance.h}{20}{lstlisting.8.28}}
\@writefile{toc}{\contentsline {chapter}{\numberline {9}Strings}{20}{chapter.9}}
\@writefile{lof}{\addvspace {10\p@ }}
\@writefile{lot}{\addvspace {10\p@ }}
\ttl@writefile{ptc}{\ttl@stoptoc{chapters@8}}
\ttl@writefile{ptc}{\ttl@starttoc{chapters@9}}
\@writefile{ptc}{\contentsline {section}{\texttt  {KMP.h}\hspace  {0.2em}}{20}{chapter.9}}
\@writefile{lol}{\contentsline {lstlisting}{\numberline {9.1}KMP.h}{20}{lstlisting.9.1}}
\@writefile{ptc}{\contentsline {section}{\texttt  {Zfunc.h}\hspace  {0.2em}}{20}{lstnumber.9.1.16}}
\@writefile{lol}{\contentsline {lstlisting}{\numberline {9.2}Zfunc.h}{20}{lstlisting.9.2}}
\@writefile{ptc}{\contentsline {section}{\texttt  {Manacher.h}\hspace  {0.2em}}{20}{lstnumber.9.2.12}}
\@writefile{lol}{\contentsline {lstlisting}{\numberline {9.3}Manacher.h}{20}{lstlisting.9.3}}
\@writefile{ptc}{\contentsline {section}{\texttt  {MinRotation.h}\hspace  {0.2em}}{20}{lstnumber.9.3.13}}
\@writefile{lol}{\contentsline {lstlisting}{\numberline {9.4}MinRotation.h}{20}{lstlisting.9.4}}
\@writefile{ptc}{\contentsline {section}{\texttt  {SuffixArray.h}\hspace  {0.2em}}{20}{lstnumber.9.4.8}}
\@writefile{lol}{\contentsline {lstlisting}{\numberline {9.5}SuffixArray.h}{20}{lstlisting.9.5}}
\@writefile{ptc}{\contentsline {section}{\texttt  {SuffixTree.h}\hspace  {0.2em}}{20}{lstnumber.9.5.23}}
\@writefile{lol}{\contentsline {lstlisting}{\numberline {9.6}SuffixTree.h}{20}{lstlisting.9.6}}
\@writefile{ptc}{\contentsline {section}{\texttt  {Hashing.h}\hspace  {0.2em}}{21}{lstnumber.9.6.50}}
\@writefile{lol}{\contentsline {lstlisting}{\numberline {9.7}Hashing.h}{21}{lstlisting.9.7}}
\@writefile{ptc}{\contentsline {section}{\texttt  {AhoCorasick.h}\hspace  {0.2em}}{21}{lstnumber.9.7.44}}
\@writefile{lol}{\contentsline {lstlisting}{\numberline {9.8}AhoCorasick.h}{21}{lstlisting.9.8}}
\@writefile{toc}{\contentsline {chapter}{\numberline {10}Various}{21}{chapter.10}}
\@writefile{lof}{\addvspace {10\p@ }}
\@writefile{lot}{\addvspace {10\p@ }}
\ttl@writefile{ptc}{\ttl@stoptoc{chapters@9}}
\ttl@writefile{ptc}{\ttl@starttoc{chapters@10}}
\@writefile{toc}{\contentsline {section}{\numberline {10.1}Dynamic programming}{21}{section.10.1}}
\@writefile{ptc}{\contentsline {subsection}{\texttt  {KnuthDP.h}\hspace  {0.2em}}{21}{section.10.1}}
\@writefile{lol}{\contentsline {lstlisting}{\numberline {10.1}KnuthDP.h}{21}{lstlisting.10.1}}
\@writefile{toc}{\contentsline {section}{\numberline {10.2}Debugging tricks}{21}{section.10.2}}
\@writefile{toc}{\contentsline {section}{\numberline {10.3}Optimization tricks}{21}{section.10.3}}
\@writefile{toc}{\contentsline {subsection}{\numberline {10.3.1}Bit hacks}{21}{subsection.10.3.1}}
\@writefile{toc}{\contentsline {subsection}{\numberline {10.3.2}Pragmas}{22}{subsection.10.3.2}}
\@writefile{ptc}{\contentsline {subsection}{\texttt  {FastInput.h}\hspace  {0.2em}}{22}{subsection.10.3.2}}
\@writefile{lol}{\contentsline {lstlisting}{\numberline {10.2}FastInput.h}{22}{lstlisting.10.2}}
\@writefile{toc}{\contentsline {chapter}{\numberline {11}Andrew's text algos}{22}{chapter.11}}
\@writefile{lof}{\addvspace {10\p@ }}
\@writefile{lot}{\addvspace {10\p@ }}
\ttl@writefile{ptc}{\ttl@stoptoc{chapters@10}}
\ttl@writefile{ptc}{\ttl@starttoc{chapters@11}}
\@writefile{ptc}{\contentsline {section}{\texttt  {suffArr.h}\hspace  {0.2em}}{22}{chapter.11}}
\@writefile{lol}{\contentsline {lstlisting}{\numberline {11.1}suffArr.h}{22}{lstlisting.11.1}}
\@writefile{ptc}{\contentsline {section}{\texttt  {kmp.h}\hspace  {0.2em}}{22}{lstnumber.11.1.89}}
\@writefile{lol}{\contentsline {lstlisting}{\numberline {11.2}kmp.h}{22}{lstlisting.11.2}}
\@writefile{ptc}{\contentsline {section}{\texttt  {aho.h}\hspace  {0.2em}}{22}{lstnumber.11.2.43}}
\@writefile{lol}{\contentsline {lstlisting}{\numberline {11.3}aho.h}{22}{lstlisting.11.3}}
\@writefile{toc}{\contentsline {chapter}{\numberline {12}Andrew's matchings}{23}{chapter.12}}
\@writefile{lof}{\addvspace {10\p@ }}
\@writefile{lot}{\addvspace {10\p@ }}
\ttl@writefile{ptc}{\ttl@stoptoc{chapters@11}}
\ttl@writefile{ptc}{\ttl@starttoc{chapters@12}}
\@writefile{ptc}{\contentsline {section}{\texttt  {hungarian.h}\hspace  {0.2em}}{23}{chapter.12}}
\@writefile{lol}{\contentsline {lstlisting}{\numberline {12.1}hungarian.h}{23}{lstlisting.12.1}}
\@writefile{ptc}{\contentsline {section}{\texttt  {dinic.h}\hspace  {0.2em}}{23}{lstnumber.12.1.50}}
\@writefile{lol}{\contentsline {lstlisting}{\numberline {12.2}dinic.h}{23}{lstlisting.12.2}}
\@writefile{ptc}{\contentsline {section}{\texttt  {mincostflow.h}\hspace  {0.2em}}{23}{lstnumber.12.2.65}}
\@writefile{lol}{\contentsline {lstlisting}{\numberline {12.3}mincostflow.h}{23}{lstlisting.12.3}}
\@writefile{toc}{\contentsline {chapter}{\numberline {13}Andrew's polynomials}{24}{chapter.13}}
\@writefile{lof}{\addvspace {10\p@ }}
\@writefile{lot}{\addvspace {10\p@ }}
\ttl@writefile{ptc}{\ttl@stoptoc{chapters@12}}
\ttl@writefile{ptc}{\ttl@starttoc{chapters@13}}
\@writefile{ptc}{\contentsline {section}{\texttt  {ntt.h}\hspace  {0.2em}}{24}{chapter.13}}
\@writefile{lol}{\contentsline {lstlisting}{\numberline {13.1}ntt.h}{24}{lstlisting.13.1}}
\@writefile{ptc}{\contentsline {section}{\texttt  {fft.h}\hspace  {0.2em}}{24}{lstnumber.13.1.69}}
\@writefile{lol}{\contentsline {lstlisting}{\numberline {13.2}fft.h}{24}{lstlisting.13.2}}
\@writefile{toc}{\contentsline {chapter}{\numberline {14}Andrew's various}{24}{chapter.14}}
\@writefile{lof}{\addvspace {10\p@ }}
\@writefile{lot}{\addvspace {10\p@ }}
\ttl@writefile{ptc}{\ttl@stoptoc{chapters@13}}
\ttl@writefile{ptc}{\ttl@starttoc{chapters@14}}
\@writefile{ptc}{\contentsline {section}{\texttt  {2sat.h}\hspace  {0.2em}}{24}{chapter.14}}
\@writefile{lol}{\contentsline {lstlisting}{\numberline {14.1}2sat.h}{24}{lstlisting.14.1}}
\@writefile{toc}{\contentsline {chapter}{\numberline {15}Chris' various}{25}{chapter.15}}
\@writefile{lof}{\addvspace {10\p@ }}
\@writefile{lot}{\addvspace {10\p@ }}
\ttl@writefile{ptc}{\ttl@stoptoc{chapters@14}}
\ttl@writefile{ptc}{\ttl@starttoc{chapters@15}}
\@writefile{ptc}{\contentsline {section}{\texttt  {Chrisfft.h}\hspace  {0.2em}}{25}{chapter.15}}
\@writefile{lol}{\contentsline {lstlisting}{\numberline {15.1}Chrisfft.h}{25}{lstlisting.15.1}}
\@writefile{ptc}{\contentsline {section}{\texttt  {ChrisMincow.h}\hspace  {0.2em}}{25}{lstnumber.15.1.38}}
\@writefile{lol}{\contentsline {lstlisting}{\numberline {15.2}ChrisMincow.h}{25}{lstlisting.15.2}}
\@writefile{ptc}{\contentsline {section}{\texttt  {ChrisHun.h}\hspace  {0.2em}}{25}{lstnumber.15.2.11}}
\@writefile{lol}{\contentsline {lstlisting}{\numberline {15.3}ChrisHun.h}{25}{lstlisting.15.3}}
\@writefile{ptc}{\contentsline {section}{\texttt  {ChrisTreap.h}\hspace  {0.2em}}{25}{lstnumber.15.3.48}}
\@writefile{lol}{\contentsline {lstlisting}{\numberline {15.4}ChrisTreap.h}{25}{lstlisting.15.4}}
\@writefile{lof}{\addvspace {10\p@ }}
\@writefile{lot}{\addvspace {10\p@ }}
\ttl@writefile{ptc}{\ttl@stoptoc{chapters@15}}
\ttl@writefile{ptc}{\ttl@starttoc{chapters@16}}
\@writefile{lol}{\contentsline {lstlisting}{\numberline {A.1}techniques.txt}{26}{lstlisting.1.1}}
\ttl@finishall
