\contentsline {chapter}{\numberline {1}Contest}{1}{chapter.1}
\contentsline {chapter}{\numberline {2}Mathematics}{1}{chapter.2}
\contentsline {section}{\numberline {2.1}Equations}{1}{section.2.1}
\contentsline {section}{\numberline {2.2}Recurrences}{1}{section.2.2}
\contentsline {section}{\numberline {2.3}Trigonometry}{1}{section.2.3}
\contentsline {section}{\numberline {2.4}Geometry}{2}{section.2.4}
\contentsline {subsection}{\numberline {2.4.1}Triangles}{2}{subsection.2.4.1}
\contentsline {subsection}{\numberline {2.4.2}Quadrilaterals}{2}{subsection.2.4.2}
\contentsline {subsection}{\numberline {2.4.3}Spherical coordinates}{2}{subsection.2.4.3}
\contentsline {section}{\numberline {2.5}Probability theory}{2}{section.2.5}
\contentsline {subsection}{\numberline {2.5.1}Discrete distributions}{2}{subsection.2.5.1}
\contentsline {subsubsection}{Binomial distribution}{2}{section*.1}
\contentsline {subsubsection}{First success distribution}{2}{section*.2}
\contentsline {subsubsection}{Poisson distribution}{2}{section*.3}
\contentsline {subsection}{\numberline {2.5.2}Continuous distributions}{2}{subsection.2.5.2}
\contentsline {subsubsection}{Uniform distribution}{2}{section*.4}
\contentsline {subsubsection}{Exponential distribution}{2}{section*.5}
\contentsline {subsubsection}{Normal distribution}{2}{section*.6}
\contentsline {section}{\numberline {2.6}Various}{2}{section.2.6}
\contentsline {subsection}{\numberline {2.6.1}Pick's theorem}{2}{subsection.2.6.1}
\contentsline {subsection}{\numberline {2.6.2}Euler's formula}{2}{subsection.2.6.2}
\contentsline {chapter}{\numberline {3}Data structures}{2}{chapter.3}
\contentsline {chapter}{\numberline {4}Numerical}{4}{chapter.4}
\contentsline {section}{\numberline {4.1}Polynomials and recurrences}{4}{section.4.1}
\contentsline {section}{\numberline {4.2}Optimization}{5}{section.4.2}
\contentsline {section}{\numberline {4.3}Matrices}{6}{section.4.3}
\contentsline {section}{\numberline {4.4}Fourier transforms}{7}{section.4.4}
\contentsline {chapter}{\numberline {5}Number theory}{8}{chapter.5}
\contentsline {section}{\numberline {5.1}Modular arithmetic}{8}{section.5.1}
\contentsline {section}{\numberline {5.2}Primality}{8}{section.5.2}
\contentsline {section}{\numberline {5.3}Divisibility}{9}{section.5.3}
\contentsline {subsection}{\numberline {5.3.1}B\IeC {\'e}zout's identity}{9}{subsection.5.3.1}
\contentsline {section}{\numberline {5.4}Fractions}{9}{section.5.4}
\contentsline {section}{\numberline {5.5}Pythagorean Triples}{9}{section.5.5}
\contentsline {section}{\numberline {5.6}Primes}{9}{section.5.6}
\contentsline {section}{\numberline {5.7}Estimates}{9}{section.5.7}
\contentsline {section}{\numberline {5.8}Mobius Function}{10}{section.5.8}
\contentsline {chapter}{\numberline {6}Combinatorial}{10}{chapter.6}
\contentsline {section}{\numberline {6.1}Permutations}{10}{section.6.1}
\contentsline {subsection}{\numberline {6.1.1}Cycles}{10}{subsection.6.1.1}
\contentsline {subsection}{\numberline {6.1.2}Derangements}{10}{subsection.6.1.2}
\contentsline {subsection}{\numberline {6.1.3}Burnside's lemma}{10}{subsection.6.1.3}
\contentsline {section}{\numberline {6.2}Partitions and subsets}{10}{section.6.2}
\contentsline {subsection}{\numberline {6.2.1}Partition function}{10}{subsection.6.2.1}
\contentsline {subsection}{\numberline {6.2.2}Lucas' Theorem}{10}{subsection.6.2.2}
\contentsline {subsection}{\numberline {6.2.3}Binomials}{10}{subsection.6.2.3}
\contentsline {section}{\numberline {6.3}General purpose numbers}{10}{section.6.3}
\contentsline {subsection}{\numberline {6.3.1}Bernoulli numbers}{10}{subsection.6.3.1}
\contentsline {subsection}{\numberline {6.3.2}Stirling numbers of the first kind}{10}{subsection.6.3.2}
\contentsline {subsection}{\numberline {6.3.3}Eulerian numbers}{10}{subsection.6.3.3}
\contentsline {subsection}{\numberline {6.3.4}Stirling numbers of the second kind}{10}{subsection.6.3.4}
\contentsline {subsection}{\numberline {6.3.5}Bell numbers}{10}{subsection.6.3.5}
\contentsline {subsection}{\numberline {6.3.6}Labeled unrooted trees}{10}{subsection.6.3.6}
\contentsline {subsection}{\numberline {6.3.7}Catalan numbers}{11}{subsection.6.3.7}
\contentsline {chapter}{\numberline {7}Graph}{11}{chapter.7}
\contentsline {section}{\numberline {7.1}Fundamentals}{11}{section.7.1}
\contentsline {section}{\numberline {7.2}Network flow}{11}{section.7.2}
\contentsline {section}{\numberline {7.3}Matching}{12}{section.7.3}
\contentsline {section}{\numberline {7.4}DFS algorithms}{13}{section.7.4}
\contentsline {section}{\numberline {7.5}Coloring}{14}{section.7.5}
\contentsline {section}{\numberline {7.6}Heuristics}{14}{section.7.6}
\contentsline {section}{\numberline {7.7}Trees}{15}{section.7.7}
\contentsline {section}{\numberline {7.8}Math}{16}{section.7.8}
\contentsline {subsection}{\numberline {7.8.1}Number of Spanning Trees}{16}{subsection.7.8.1}
\contentsline {subsection}{\numberline {7.8.2}Erd\IeC {\H o}s\IeC {\textendash }Gallai theorem}{16}{subsection.7.8.2}
\contentsline {chapter}{\numberline {8}Geometry}{16}{chapter.8}
\contentsline {section}{\numberline {8.1}Geometric primitives}{16}{section.8.1}
\contentsline {section}{\numberline {8.2}Circles}{17}{section.8.2}
\contentsline {section}{\numberline {8.3}Polygons}{18}{section.8.3}
\contentsline {section}{\numberline {8.4}Misc. Point Set Problems}{19}{section.8.4}
\contentsline {section}{\numberline {8.5}3D}{19}{section.8.5}
\contentsline {chapter}{\numberline {9}Strings}{20}{chapter.9}
\contentsline {chapter}{\numberline {10}Various}{21}{chapter.10}
\contentsline {section}{\numberline {10.1}Dynamic programming}{21}{section.10.1}
\contentsline {section}{\numberline {10.2}Debugging tricks}{21}{section.10.2}
\contentsline {section}{\numberline {10.3}Optimization tricks}{21}{section.10.3}
\contentsline {subsection}{\numberline {10.3.1}Bit hacks}{21}{subsection.10.3.1}
\contentsline {subsection}{\numberline {10.3.2}Pragmas}{22}{subsection.10.3.2}
\contentsline {chapter}{\numberline {11}Andrew's text algos}{22}{chapter.11}
\contentsline {chapter}{\numberline {12}Andrew's matchings}{23}{chapter.12}
\contentsline {chapter}{\numberline {13}Andrew's polynomials}{24}{chapter.13}
\contentsline {chapter}{\numberline {14}Andrew's various}{24}{chapter.14}
\contentsline {chapter}{\numberline {15}Chris' various}{25}{chapter.15}
\contentsfinish 
